{
  "Last Name": "Bach",
  "First Name": "Johann Sebastian",
  "Collection": "The Well-Tempered Clavier, Book II",
  "Instruments": "Harpsichord",
  "Year": "1744",
  "Provenance": "https://musescore.com/user/19710/sets/1994936",
  "Reference Edition": "Universal Edition",
  "Link to Reference Edition": "https://imslp.org/wiki/Special:ReverseLookup/494709"
}
